{
  "version": 2,
  "targets": {
    "UAP,Version=v10.0": {
      "Xamarin.Forms/2.3.3.193": {
        "type": "package",
        "compile": {
          "lib/uap10.0/Xamarin.Forms.Core.dll": {},
          "lib/uap10.0/Xamarin.Forms.Platform.UAP.dll": {},
          "lib/uap10.0/Xamarin.Forms.Platform.dll": {},
          "lib/uap10.0/Xamarin.Forms.Xaml.dll": {}
        },
        "runtime": {
          "lib/uap10.0/Xamarin.Forms.Core.dll": {},
          "lib/uap10.0/Xamarin.Forms.Platform.UAP.dll": {},
          "lib/uap10.0/Xamarin.Forms.Platform.dll": {},
          "lib/uap10.0/Xamarin.Forms.Xaml.dll": {}
        },
        "build": {
          "build/portable-win+net45+wp80+win81+wpa81+MonoAndroid10+Xamarin.iOS10+xamarinmac20/Xamarin.Forms.targets": {}
        }
      },
      "GW_Solver/1.0.0": {
        "type": "project"
      }
    },
    "UAP,Version=v10.0/win10-arm": {
      "Xamarin.Forms/2.3.3.193": {
        "type": "package",
        "compile": {
          "lib/uap10.0/Xamarin.Forms.Core.dll": {},
          "lib/uap10.0/Xamarin.Forms.Platform.UAP.dll": {},
          "lib/uap10.0/Xamarin.Forms.Platform.dll": {},
          "lib/uap10.0/Xamarin.Forms.Xaml.dll": {}
        },
        "runtime": {
          "lib/uap10.0/Xamarin.Forms.Core.dll": {},
          "lib/uap10.0/Xamarin.Forms.Platform.UAP.dll": {},
          "lib/uap10.0/Xamarin.Forms.Platform.dll": {},
          "lib/uap10.0/Xamarin.Forms.Xaml.dll": {}
        },
        "build": {
          "build/portable-win+net45+wp80+win81+wpa81+MonoAndroid10+Xamarin.iOS10+xamarinmac20/Xamarin.Forms.targets": {}
        }
      },
      "GW_Solver/1.0.0": {
        "type": "project"
      }
    },
    "UAP,Version=v10.0/win10-arm-aot": {
      "Xamarin.Forms/2.3.3.193": {
        "type": "package",
        "compile": {
          "lib/uap10.0/Xamarin.Forms.Core.dll": {},
          "lib/uap10.0/Xamarin.Forms.Platform.UAP.dll": {},
          "lib/uap10.0/Xamarin.Forms.Platform.dll": {},
          "lib/uap10.0/Xamarin.Forms.Xaml.dll": {}
        },
        "runtime": {
          "lib/uap10.0/Xamarin.Forms.Core.dll": {},
          "lib/uap10.0/Xamarin.Forms.Platform.UAP.dll": {},
          "lib/uap10.0/Xamarin.Forms.Platform.dll": {},
          "lib/uap10.0/Xamarin.Forms.Xaml.dll": {}
        },
        "build": {
          "build/portable-win+net45+wp80+win81+wpa81+MonoAndroid10+Xamarin.iOS10+xamarinmac20/Xamarin.Forms.targets": {}
        }
      },
      "GW_Solver/1.0.0": {
        "type": "project"
      }
    },
    "UAP,Version=v10.0/win10-x64": {
      "Xamarin.Forms/2.3.3.193": {
        "type": "package",
        "compile": {
          "lib/uap10.0/Xamarin.Forms.Core.dll": {},
          "lib/uap10.0/Xamarin.Forms.Platform.UAP.dll": {},
          "lib/uap10.0/Xamarin.Forms.Platform.dll": {},
          "lib/uap10.0/Xamarin.Forms.Xaml.dll": {}
        },
        "runtime": {
          "lib/uap10.0/Xamarin.Forms.Core.dll": {},
          "lib/uap10.0/Xamarin.Forms.Platform.UAP.dll": {},
          "lib/uap10.0/Xamarin.Forms.Platform.dll": {},
          "lib/uap10.0/Xamarin.Forms.Xaml.dll": {}
        },
        "build": {
          "build/portable-win+net45+wp80+win81+wpa81+MonoAndroid10+Xamarin.iOS10+xamarinmac20/Xamarin.Forms.targets": {}
        }
      },
      "GW_Solver/1.0.0": {
        "type": "project"
      }
    },
    "UAP,Version=v10.0/win10-x64-aot": {
      "Xamarin.Forms/2.3.3.193": {
        "type": "package",
        "compile": {
          "lib/uap10.0/Xamarin.Forms.Core.dll": {},
          "lib/uap10.0/Xamarin.Forms.Platform.UAP.dll": {},
          "lib/uap10.0/Xamarin.Forms.Platform.dll": {},
          "lib/uap10.0/Xamarin.Forms.Xaml.dll": {}
        },
        "runtime": {
          "lib/uap10.0/Xamarin.Forms.Core.dll": {},
          "lib/uap10.0/Xamarin.Forms.Platform.UAP.dll": {},
          "lib/uap10.0/Xamarin.Forms.Platform.dll": {},
          "lib/uap10.0/Xamarin.Forms.Xaml.dll": {}
        },
        "build": {
          "build/portable-win+net45+wp80+win81+wpa81+MonoAndroid10+Xamarin.iOS10+xamarinmac20/Xamarin.Forms.targets": {}
        }
      },
      "GW_Solver/1.0.0": {
        "type": "project"
      }
    },
    "UAP,Version=v10.0/win10-x86": {
      "Xamarin.Forms/2.3.3.193": {
        "type": "package",
        "compile": {
          "lib/uap10.0/Xamarin.Forms.Core.dll": {},
          "lib/uap10.0/Xamarin.Forms.Platform.UAP.dll": {},
          "lib/uap10.0/Xamarin.Forms.Platform.dll": {},
          "lib/uap10.0/Xamarin.Forms.Xaml.dll": {}
        },
        "runtime": {
          "lib/uap10.0/Xamarin.Forms.Core.dll": {},
          "lib/uap10.0/Xamarin.Forms.Platform.UAP.dll": {},
          "lib/uap10.0/Xamarin.Forms.Platform.dll": {},
          "lib/uap10.0/Xamarin.Forms.Xaml.dll": {}
        },
        "build": {
          "build/portable-win+net45+wp80+win81+wpa81+MonoAndroid10+Xamarin.iOS10+xamarinmac20/Xamarin.Forms.targets": {}
        }
      },
      "GW_Solver/1.0.0": {
        "type": "project"
      }
    },
    "UAP,Version=v10.0/win10-x86-aot": {
      "Xamarin.Forms/2.3.3.193": {
        "type": "package",
        "compile": {
          "lib/uap10.0/Xamarin.Forms.Core.dll": {},
          "lib/uap10.0/Xamarin.Forms.Platform.UAP.dll": {},
          "lib/uap10.0/Xamarin.Forms.Platform.dll": {},
          "lib/uap10.0/Xamarin.Forms.Xaml.dll": {}
        },
        "runtime": {
          "lib/uap10.0/Xamarin.Forms.Core.dll": {},
          "lib/uap10.0/Xamarin.Forms.Platform.UAP.dll": {},
          "lib/uap10.0/Xamarin.Forms.Platform.dll": {},
          "lib/uap10.0/Xamarin.Forms.Xaml.dll": {}
        },
        "build": {
          "build/portable-win+net45+wp80+win81+wpa81+MonoAndroid10+Xamarin.iOS10+xamarinmac20/Xamarin.Forms.targets": {}
        }
      },
      "GW_Solver/1.0.0": {
        "type": "project"
      }
    }
  },
  "libraries": {
    "Xamarin.Forms/2.3.3.193": {
      "sha512": "RnZGA4K1MoN5qDKBvBd0BTkWcXQ42p4qCP6VYBoGD/PIlPMyLTUcRnfcPg+jPOjSy7mlNoCMZc+6KL38/wVE5g==",
      "type": "package",
      "path": "xamarin.forms/2.3.3.193",
      "files": [
        "build/portable-win+net45+wp80+win81+wpa81+MonoAndroid10+Xamarin.iOS10+xamarinmac20/ICSharpCode.Decompiler.dll",
        "build/portable-win+net45+wp80+win81+wpa81+MonoAndroid10+Xamarin.iOS10+xamarinmac20/ICSharpCode.NRefactory.CSharp.dll",
        "build/portable-win+net45+wp80+win81+wpa81+MonoAndroid10+Xamarin.iOS10+xamarinmac20/ICSharpCode.NRefactory.Cecil.dll",
        "build/portable-win+net45+wp80+win81+wpa81+MonoAndroid10+Xamarin.iOS10+xamarinmac20/ICSharpCode.NRefactory.Xml.dll",
        "build/portable-win+net45+wp80+win81+wpa81+MonoAndroid10+Xamarin.iOS10+xamarinmac20/ICSharpCode.NRefactory.dll",
        "build/portable-win+net45+wp80+win81+wpa81+MonoAndroid10+Xamarin.iOS10+xamarinmac20/Mono.Cecil.Mdb.dll",
        "build/portable-win+net45+wp80+win81+wpa81+MonoAndroid10+Xamarin.iOS10+xamarinmac20/Mono.Cecil.Pdb.dll",
        "build/portable-win+net45+wp80+win81+wpa81+MonoAndroid10+Xamarin.iOS10+xamarinmac20/Mono.Cecil.Rocks.dll",
        "build/portable-win+net45+wp80+win81+wpa81+MonoAndroid10+Xamarin.iOS10+xamarinmac20/Mono.Cecil.dll",
        "build/portable-win+net45+wp80+win81+wpa81+MonoAndroid10+Xamarin.iOS10+xamarinmac20/Xamarin.Forms.Build.Tasks.dll",
        "build/portable-win+net45+wp80+win81+wpa81+MonoAndroid10+Xamarin.iOS10+xamarinmac20/Xamarin.Forms.Core.dll",
        "build/portable-win+net45+wp80+win81+wpa81+MonoAndroid10+Xamarin.iOS10+xamarinmac20/Xamarin.Forms.Xaml.dll",
        "build/portable-win+net45+wp80+win81+wpa81+MonoAndroid10+Xamarin.iOS10+xamarinmac20/Xamarin.Forms.targets",
        "lib/MonoAndroid10/Design/Xamarin.Forms.Core.Design.dll",
        "lib/MonoAndroid10/Design/Xamarin.Forms.Xaml.Design.dll",
        "lib/MonoAndroid10/FormsViewGroup.dll",
        "lib/MonoAndroid10/FormsViewGroup.pdb",
        "lib/MonoAndroid10/Xamarin.Forms.Core.dll",
        "lib/MonoAndroid10/Xamarin.Forms.Core.pdb",
        "lib/MonoAndroid10/Xamarin.Forms.Core.xml",
        "lib/MonoAndroid10/Xamarin.Forms.Platform.Android.dll",
        "lib/MonoAndroid10/Xamarin.Forms.Platform.Android.pdb",
        "lib/MonoAndroid10/Xamarin.Forms.Platform.dll",
        "lib/MonoAndroid10/Xamarin.Forms.Xaml.dll",
        "lib/MonoAndroid10/Xamarin.Forms.Xaml.pdb",
        "lib/MonoAndroid10/Xamarin.Forms.Xaml.xml",
        "lib/WP80/Design/Xamarin.Forms.Core.Design.dll",
        "lib/WP80/Design/Xamarin.Forms.Xaml.Design.dll",
        "lib/WP80/Xamarin.Forms.Core.dll",
        "lib/WP80/Xamarin.Forms.Core.pdb",
        "lib/WP80/Xamarin.Forms.Core.xml",
        "lib/WP80/Xamarin.Forms.Platform.WP8.dll",
        "lib/WP80/Xamarin.Forms.Platform.WP8.pdb",
        "lib/WP80/Xamarin.Forms.Platform.dll",
        "lib/WP80/Xamarin.Forms.Xaml.dll",
        "lib/WP80/Xamarin.Forms.Xaml.pdb",
        "lib/WP80/Xamarin.Forms.Xaml.xml",
        "lib/Xamarin.iOS10/Design/Xamarin.Forms.Core.Design.dll",
        "lib/Xamarin.iOS10/Design/Xamarin.Forms.Xaml.Design.dll",
        "lib/Xamarin.iOS10/Xamarin.Forms.Core.dll",
        "lib/Xamarin.iOS10/Xamarin.Forms.Core.dll.mdb",
        "lib/Xamarin.iOS10/Xamarin.Forms.Core.pdb",
        "lib/Xamarin.iOS10/Xamarin.Forms.Core.xml",
        "lib/Xamarin.iOS10/Xamarin.Forms.Platform.dll",
        "lib/Xamarin.iOS10/Xamarin.Forms.Platform.iOS.dll",
        "lib/Xamarin.iOS10/Xamarin.Forms.Platform.iOS.dll.mdb",
        "lib/Xamarin.iOS10/Xamarin.Forms.Platform.iOS.pdb",
        "lib/Xamarin.iOS10/Xamarin.Forms.Xaml.dll",
        "lib/Xamarin.iOS10/Xamarin.Forms.Xaml.dll.mdb",
        "lib/Xamarin.iOS10/Xamarin.Forms.Xaml.pdb",
        "lib/Xamarin.iOS10/Xamarin.Forms.Xaml.xml",
        "lib/Xamarin.iOS10/ar/Xamarin.Forms.Platform.iOS.resources.dll",
        "lib/Xamarin.iOS10/ca/Xamarin.Forms.Platform.iOS.resources.dll",
        "lib/Xamarin.iOS10/cs/Xamarin.Forms.Platform.iOS.resources.dll",
        "lib/Xamarin.iOS10/da/Xamarin.Forms.Platform.iOS.resources.dll",
        "lib/Xamarin.iOS10/de/Xamarin.Forms.Platform.iOS.resources.dll",
        "lib/Xamarin.iOS10/el/Xamarin.Forms.Platform.iOS.resources.dll",
        "lib/Xamarin.iOS10/es/Xamarin.Forms.Platform.iOS.resources.dll",
        "lib/Xamarin.iOS10/fi/Xamarin.Forms.Platform.iOS.resources.dll",
        "lib/Xamarin.iOS10/fr/Xamarin.Forms.Platform.iOS.resources.dll",
        "lib/Xamarin.iOS10/he/Xamarin.Forms.Platform.iOS.resources.dll",
        "lib/Xamarin.iOS10/hi/Xamarin.Forms.Platform.iOS.resources.dll",
        "lib/Xamarin.iOS10/hr/Xamarin.Forms.Platform.iOS.resources.dll",
        "lib/Xamarin.iOS10/hu/Xamarin.Forms.Platform.iOS.resources.dll",
        "lib/Xamarin.iOS10/id/Xamarin.Forms.Platform.iOS.resources.dll",
        "lib/Xamarin.iOS10/it/Xamarin.Forms.Platform.iOS.resources.dll",
        "lib/Xamarin.iOS10/ja/Xamarin.Forms.Platform.iOS.resources.dll",
        "lib/Xamarin.iOS10/ko/Xamarin.Forms.Platform.iOS.resources.dll",
        "lib/Xamarin.iOS10/ms/Xamarin.Forms.Platform.iOS.resources.dll",
        "lib/Xamarin.iOS10/nb/Xamarin.Forms.Platform.iOS.resources.dll",
        "lib/Xamarin.iOS10/nl/Xamarin.Forms.Platform.iOS.resources.dll",
        "lib/Xamarin.iOS10/pl/Xamarin.Forms.Platform.iOS.resources.dll",
        "lib/Xamarin.iOS10/pt-BR/Xamarin.Forms.Platform.iOS.resources.dll",
        "lib/Xamarin.iOS10/pt/Xamarin.Forms.Platform.iOS.resources.dll",
        "lib/Xamarin.iOS10/ro/Xamarin.Forms.Platform.iOS.resources.dll",
        "lib/Xamarin.iOS10/ru/Xamarin.Forms.Platform.iOS.resources.dll",
        "lib/Xamarin.iOS10/sk/Xamarin.Forms.Platform.iOS.resources.dll",
        "lib/Xamarin.iOS10/sv/Xamarin.Forms.Platform.iOS.resources.dll",
        "lib/Xamarin.iOS10/th/Xamarin.Forms.Platform.iOS.resources.dll",
        "lib/Xamarin.iOS10/tr/Xamarin.Forms.Platform.iOS.resources.dll",
        "lib/Xamarin.iOS10/uk/Xamarin.Forms.Platform.iOS.resources.dll",
        "lib/Xamarin.iOS10/vi/Xamarin.Forms.Platform.iOS.resources.dll",
        "lib/Xamarin.iOS10/zh-HK/Xamarin.Forms.Platform.iOS.resources.dll",
        "lib/Xamarin.iOS10/zh-Hans/Xamarin.Forms.Platform.iOS.resources.dll",
        "lib/Xamarin.iOS10/zh-Hant/Xamarin.Forms.Platform.iOS.resources.dll",
        "lib/portable-win+net45+wp80+win81+wpa81+MonoAndroid10+Xamarin.iOS10+xamarinmac20/Design/Xamarin.Forms.Core.Design.dll",
        "lib/portable-win+net45+wp80+win81+wpa81+MonoAndroid10+Xamarin.iOS10+xamarinmac20/Design/Xamarin.Forms.Xaml.Design.dll",
        "lib/portable-win+net45+wp80+win81+wpa81+MonoAndroid10+Xamarin.iOS10+xamarinmac20/Xamarin.Forms.Core.dll",
        "lib/portable-win+net45+wp80+win81+wpa81+MonoAndroid10+Xamarin.iOS10+xamarinmac20/Xamarin.Forms.Core.dll.mdb",
        "lib/portable-win+net45+wp80+win81+wpa81+MonoAndroid10+Xamarin.iOS10+xamarinmac20/Xamarin.Forms.Core.pdb",
        "lib/portable-win+net45+wp80+win81+wpa81+MonoAndroid10+Xamarin.iOS10+xamarinmac20/Xamarin.Forms.Core.xml",
        "lib/portable-win+net45+wp80+win81+wpa81+MonoAndroid10+Xamarin.iOS10+xamarinmac20/Xamarin.Forms.Platform.dll",
        "lib/portable-win+net45+wp80+win81+wpa81+MonoAndroid10+Xamarin.iOS10+xamarinmac20/Xamarin.Forms.Platform.dll.mdb",
        "lib/portable-win+net45+wp80+win81+wpa81+MonoAndroid10+Xamarin.iOS10+xamarinmac20/Xamarin.Forms.Platform.pdb",
        "lib/portable-win+net45+wp80+win81+wpa81+MonoAndroid10+Xamarin.iOS10+xamarinmac20/Xamarin.Forms.Xaml.dll",
        "lib/portable-win+net45+wp80+win81+wpa81+MonoAndroid10+Xamarin.iOS10+xamarinmac20/Xamarin.Forms.Xaml.dll.mdb",
        "lib/portable-win+net45+wp80+win81+wpa81+MonoAndroid10+Xamarin.iOS10+xamarinmac20/Xamarin.Forms.Xaml.pdb",
        "lib/portable-win+net45+wp80+win81+wpa81+MonoAndroid10+Xamarin.iOS10+xamarinmac20/Xamarin.Forms.Xaml.xml",
        "lib/uap10.0/Design/Xamarin.Forms.Core.Design.dll",
        "lib/uap10.0/Design/Xamarin.Forms.Xaml.Design.dll",
        "lib/uap10.0/Xamarin.Forms.Core.dll",
        "lib/uap10.0/Xamarin.Forms.Core.xml",
        "lib/uap10.0/Xamarin.Forms.Platform.UAP.dll",
        "lib/uap10.0/Xamarin.Forms.Platform.UAP.pri",
        "lib/uap10.0/Xamarin.Forms.Platform.UAP/AutoSuggestStyle.xbf",
        "lib/uap10.0/Xamarin.Forms.Platform.UAP/FormsCommandBarStyle.xbf",
        "lib/uap10.0/Xamarin.Forms.Platform.UAP/FormsTextBoxStyle.xbf",
        "lib/uap10.0/Xamarin.Forms.Platform.UAP/MasterDetailControlStyle.xbf",
        "lib/uap10.0/Xamarin.Forms.Platform.UAP/PageControl.xbf",
        "lib/uap10.0/Xamarin.Forms.Platform.UAP/PageControlStyle.xbf",
        "lib/uap10.0/Xamarin.Forms.Platform.UAP/Properties/Xamarin.Forms.Platform.UAP.rd.xml",
        "lib/uap10.0/Xamarin.Forms.Platform.UAP/Resources.xbf",
        "lib/uap10.0/Xamarin.Forms.Platform.UAP/TabbedPageStyle.xbf",
        "lib/uap10.0/Xamarin.Forms.Platform.UAP/Xamarin.Forms.Platform.UAP.xr.xml",
        "lib/uap10.0/Xamarin.Forms.Platform.dll",
        "lib/uap10.0/Xamarin.Forms.Xaml.dll",
        "lib/uap10.0/Xamarin.Forms.Xaml.xml",
        "lib/win81/Design/Xamarin.Forms.Core.Design.dll",
        "lib/win81/Design/Xamarin.Forms.Xaml.Design.dll",
        "lib/win81/Xamarin.Forms.Core.dll",
        "lib/win81/Xamarin.Forms.Core.xml",
        "lib/win81/Xamarin.Forms.Platform.WinRT.Tablet.dll",
        "lib/win81/Xamarin.Forms.Platform.WinRT.Tablet.pri",
        "lib/win81/Xamarin.Forms.Platform.WinRT.Tablet/FormsTextBoxStyle.xbf",
        "lib/win81/Xamarin.Forms.Platform.WinRT.Tablet/Resources.xbf",
        "lib/win81/Xamarin.Forms.Platform.WinRT.Tablet/TabletResources.xbf",
        "lib/win81/Xamarin.Forms.Platform.WinRT.Tablet/Xamarin.Forms.Platform.WinRT.Tablet.xr.xml",
        "lib/win81/Xamarin.Forms.Platform.WinRT.dll",
        "lib/win81/Xamarin.Forms.Platform.WinRT.pri",
        "lib/win81/Xamarin.Forms.Platform.WinRT/PageControl.xbf",
        "lib/win81/Xamarin.Forms.Platform.WinRT/StepperControl.xbf",
        "lib/win81/Xamarin.Forms.Platform.WinRT/Xamarin.Forms.Platform.WinRT.xr.xml",
        "lib/win81/Xamarin.Forms.Platform.dll",
        "lib/win81/Xamarin.Forms.Xaml.dll",
        "lib/win81/Xamarin.Forms.Xaml.xml",
        "lib/wpa81/Design/Xamarin.Forms.Core.Design.dll",
        "lib/wpa81/Design/Xamarin.Forms.Xaml.Design.dll",
        "lib/wpa81/Xamarin.Forms.Core.dll",
        "lib/wpa81/Xamarin.Forms.Core.xml",
        "lib/wpa81/Xamarin.Forms.Platform.WinRT.Phone.dll",
        "lib/wpa81/Xamarin.Forms.Platform.WinRT.Phone.pri",
        "lib/wpa81/Xamarin.Forms.Platform.WinRT.Phone/FormsTextBoxStyle.xbf",
        "lib/wpa81/Xamarin.Forms.Platform.WinRT.Phone/PhoneResources.xbf",
        "lib/wpa81/Xamarin.Forms.Platform.WinRT.Phone/Resources.xbf",
        "lib/wpa81/Xamarin.Forms.Platform.WinRT.Phone/SearchBox.xbf",
        "lib/wpa81/Xamarin.Forms.Platform.WinRT.Phone/Xamarin.Forms.Platform.WinRT.Phone.xr.xml",
        "lib/wpa81/Xamarin.Forms.Platform.WinRT.dll",
        "lib/wpa81/Xamarin.Forms.Platform.WinRT.pri",
        "lib/wpa81/Xamarin.Forms.Platform.WinRT/PageControl.xbf",
        "lib/wpa81/Xamarin.Forms.Platform.WinRT/StepperControl.xbf",
        "lib/wpa81/Xamarin.Forms.Platform.WinRT/Xamarin.Forms.Platform.WinRT.xr.xml",
        "lib/wpa81/Xamarin.Forms.Platform.dll",
        "lib/wpa81/Xamarin.Forms.Xaml.dll",
        "lib/wpa81/Xamarin.Forms.Xaml.xml",
        "xamarin.forms.2.3.3.193.nupkg.sha512",
        "xamarin.forms.nuspec"
      ]
    },
    "GW_Solver/1.0.0": {
      "type": "project",
      "path": "../GW_Solver/GW_Solver.csproj",
      "msbuildProject": "../GW_Solver/GW_Solver.csproj"
    }
  },
  "projectFileDependencyGroups": {
    "": [
      "Xamarin.Forms >= 2.3.3.193"
    ],
    "UAP,Version=v10.0": []
  },
  "packageFolders": {
    "C:\\Users\\9953074\\.nuget\\packages\\": {}
  },
  "project": {
    "restore": {
      "projectUniqueName": "C:\\Users\\9953074\\Desktop\\guess-who-solver\\GW Solver\\GW Solver\\GW_Solver.UWP\\GW_Solver.UWP.csproj",
      "projectName": "GW_Solver.UWP",
      "projectPath": "C:\\Users\\9953074\\Desktop\\guess-who-solver\\GW Solver\\GW Solver\\GW_Solver.UWP\\GW_Solver.UWP.csproj",
      "projectJsonPath": "C:\\Users\\9953074\\Desktop\\guess-who-solver\\GW Solver\\GW Solver\\GW_Solver.UWP\\project.json",
      "projectStyle": "ProjectJson",
      "frameworks": {
        "uap10.0": {
          "projectReferences": {
            "C:\\Users\\9953074\\Desktop\\guess-who-solver\\GW Solver\\GW Solver\\GW_Solver\\GW_Solver.csproj": {
              "projectPath": "C:\\Users\\9953074\\Desktop\\guess-who-solver\\GW Solver\\GW Solver\\GW_Solver\\GW_Solver.csproj"
            }
          }
        }
      }
    },
    "dependencies": {
      "Xamarin.Forms": "2.3.3.193"
    },
    "frameworks": {
      "uap10.0": {}
    },
    "runtimes": {
      "win10-arm": {
        "#import": []
      },
      "win10-arm-aot": {
        "#import": []
      },
      "win10-x64": {
        "#import": []
      },
      "win10-x64-aot": {
        "#import": []
      },
      "win10-x86": {
        "#import": []
      },
      "win10-x86-aot": {
        "#import": []
      }
    }
  }
}